…
```
Output:

```bash


title_text
# A tibble: 3,248 x 3
   artist_name                     title                   word  
   <chr>                           <chr>                   <chr> 
 1 101 Strings                     The Breeze and I        the   
 2 101 Strings                     The Breeze and I        breeze
 3 101 Strings                     The Breeze and I        and   
 4 101 Strings                     The Breeze and I        i     
 5 John Mayall & The Bluesbreakers Soul Of A Short Fat Man soul  
 6 John Mayall & The Bluesbreakers Soul Of A Short Fat Man of    
 7 John Mayall & The Bluesbreakers Soul Of A Short Fat Man a     
 8 John Mayall & The Bluesbreakers Soul Of A Short Fat Man short 
 9 John Mayall & The Bluesbreakers Soul Of A Short Fat Man fat   
10 John Mayall & The Bluesbreakers Soul Of A Short Fat Man man   
# ... with 3,238 more rows
…
