…
# Create a residual sum of squares dataset
both_responses %>%
    mutate(residual = predicted - actual) %>%
    group_by(model) %>%
    summarize(rmse = sqrt(mean(residual^2)))
    
```

Output:

```bash

# both_responses has been pre-defined
both_responses
# A tibble: 730 x 3
   actual model predicted
    <int> <chr>     <dbl>
 1   1940 gbt       1952.
 2   1934 gbt       1951.
 3   1931 gbt       1969.
 4   1939 gbt       1940.
 5   1940 gbt       1951.
 6   1935 gbt       1938.
 7   1940 gbt       1954.
 8   1936 gbt       1949.
 9   1936 gbt       1969.
10   1940 gbt       1952.
# ... with 720 more rows
# Create a residual sum of squares dataset
…
